game_level,topic_area,question_type,Question,image,a1,a1_correct,a2,a2_correct,a3,a3_correct,a4,a4_correct,right_wrong,sol_ref,source,reminder
1,1,1,"Which is the most effective solution to reduce most indoor air quality problems in the home? ",,Air cleaners,N,Source control,Y,Ventilation improvements,N,Air fresheners,N,Usually the most effective way to improve indoor air quality is to eliminate individual sources of pollution or to reduce their emissions. ,,"U.S. Environmental Protection Agency, Indoor Air, Publications and Resources, The Inside Story: A Guide to Indoor Air Qualitywww.epa.gov/iaq/pubs/insidest.html#Improve5",What are some additional ways that you can improve the indoor air quality within your home? 
1,1,1,"Which of the following weather events is not related to climate change?",,Drought,N,Intense storms,N,Rainbows,Y, Flooding ,N,Rainbows are caused by the splitting of white sunlight into it component colors by raindrops; this is an ordinary occurrence.,,"U.S. Environmental Protection Agency, Climate Change ? Health and Environmental Effects, Extreme Eventswww.epa.gov/climatechange/effects/extreme.html","How does climate change effect droughts, intense storms and flooding? "
1,1,1,"Which of the following has the least impact on air quality?",,Hot temperatures,N,Wind,N,Hail,Y,Sunlight,N,"One way weather can affect air quality is through high temperature and bright sunlight. Ground-level ozone forms in the air from other pollutants including volatile organic compounds (VOCs) and nitrogen oxides (NOx). The higher the temperature and the more direct the sunlight, the more ozone is produced; this is why summertime is the more common time for unhealthy air quality. ",,"United States Department of Commerce: National Oceanic and Atmospheric Administration, Air Qualitywww.noaawatch.gov/themes/air_quality.php",What things can you do in the summertime to reduce air pollution levels? 
1,1,1,"Which is not a common air pollutant?",,Ground Level Ozone,N,Nitrogen,Y,Particulate Matter,N,Carbon Monoxide ,N,"Clean air is a mixture of about 78 percent nitrogen. Nitrogen is not a pollutant; it dilutes the other gases in the atmosphere and is used by living things to make proteins.",,"NOAA National Weather Service JetStream ? Online School for Weather, The Atmospherewww.srh.noaa.gov/jetstream//atmos/atmos_intro.htmU.S. Environmental Protection Agency: Six Common Air Pollutants, What Are the Six Common Air Pollutants?www.epa.gov/air/urbanair",What can you do to minimize your output of air pollutants?
1,1,1,"What are the primary contributors to acid rain?",,Sulfur Dioxide and Nitrogen Oxides ,Y,Water and Oxygen,N,Carbon Dioxide,N,Ozone and Particulate Matter,N,"Atmospheric pollutants, particularly oxides of sulfur and nitrogen, can cause precipitation to become more acidic when converted to sulfuric and nitric acids, hence the term ?acid rain.?",,"USGS: What is Acid Rain?pubs.usgs.gov/gip/acidrain/2.htmlU.S. Environmental Protection Agency; Acid Rain Student Site, pH Scalewww.epa.gov/acidrain/education/site_students/phscale.html#chart ",Why is acid rain worse in the Northeast United States compared to other parts of the country? 
1,1,1,"What are some harmful health effects associated with air pollution?",,Lung Damage,N,Asthma,N,Respiratory Illness,N,All of the above. ,Y,"Air pollution is made up of many kinds of gases, droplets and particles that reduce the quality of the air. Air pollution includes ?smog? which forms near the ground from chemicals in the air.",,"Health Effects of Air Pollution: How Can Air Pollution Hurt My Health?www.lbl.gov/Education/ELSI/Frames/pollution-health-effects-f.html",How does air pollution affect your lungs? 
1,1,1,"The majority of excess nitrogen delivered to the Chesapeake Bay comes from which group of sources?",,"Sewage treatment plants, septic systems, development, and residential and commercial lawn fertilizers",N,"Septic systems, air pollution, agriculture, development, and runoff from roadways ",N,"Air pollution (from vehicle exhaust), sewage treatment plants, large-scale animal operations, agriculture, and industrial sources ",Y,"Development, septic systems, runoff from roadways, and residential and commercial lawn fertilizers",N,"Excess nitrogen contributes to the Chesapeake Bay?s poor water quality. While nitrogen is needed for plant growth, human activities contribute more nitrogen than the Bay?s waters can handle.  ",,"Chesapeake Bay Program Science, Restoration, and Partnership: Nutrientswww.chesapeakebay.net/nutrients.aspx?menuitem=14690Chesapeake Bay Foundation, Water Quality Issues, Nitrogen and Phosphorus Pollutionhttp://www.cbf.org/page.aspx?pid=913The Chesapeake BAY TMDL and Virginia?s Phase 1 Watershed Implementation Plan WEBINARwww.chesapeakebay.net/status_nitrogensources.aspx?menuitem=19797",How do farms contribute wastes to the Chesapeake Bay? 
1,1,1,"Which is not a layer of the atmosphere?",,Mesosphere,N,Exosphere,N,Metasphere ,Y,Thermosphere,N,"The atmosphere consists of five layers. In order of highest to lowest altitude they are the: exosphere, thermosphere, mesosphere, stratosphere and troposphere. ",,"NOAA: National Weather Service, JetStream ? Online School for Weather, Layers of the Atmospherewww.srh.noaa.gov/jetstream//atmos/layers.htm",What is the benefit to having multiple layers within our atmosphere? 
1,1,1,"Air density does what as altitude increases?",, Increases,N, Decreases ,Y,Stays equal ,N,"Can go up or down, depending on what day of the week it is",N,"Atmospheric pressure and air density decrease as you go up, because there is less air above you in the atmosphere and therefore less weight pushing down on you. A lower density means oxygen and other gases are not pushed together as tightly. As a result, at 10,000 feet there are 30 percent less oxygen molecules in a given volume of air, relative to sea level. This is why you can get winded or even get ?altitude sickness? at higher elevations.",,"NOAA: National Weather Service, JetStream ? Online School for Weather, Air Pressurewww.srh.noaa.gov/jetstream//atmos/pressure.htm",
1,1,1,"When studying the atmosphere, which of the following methods would most likely yield the best information about the chemical compositions of its different layers?",, The scientist captures an air sample in a beaker from the air outside his/her laboratory.,N,The scientist sends a weather balloon with a camera to take pictures at different altitudes.,N,The scientist sends a weather balloon to collect air samples at different altitudes.,Y,The scientist stares into the sun at different times of day to try and visually detect shifts in color.,N,,,"About.com Chemistry: What is the Chemical Compostion of Air?http://chemistry.about.com/od/chemistryfaqs/f/aircomposition.htmStratospheric Ozone, Monitoring and Research NOAA: Science: ozone Basicswww.ozonelayer.noaa.gov/science/basics.htm",Why is it important to know about the chemical composition of the atmosphere? 
1,1,1,"Which of the following is an Indoor Air Quality (IAQ) pollutant?",,Radon,N,Environmental Tobacco Smoke,N,Lead,N, All of the Above,Y,"The three major ways to reduce indoor air pollutants are: (1) source control, (2) ventilation improvements, and (3) air control (e.g., filters) ",,"U.S. Environmental Protection Agency, Indoor Air, Publications and Resources, The Inside Story: A Guide to Air Qualitywww.epa.gov/iaq/pubs/insidestory.htmlU.S. Environmental Protection Agency, Healthy Schools, Lessons for a Clean Educational Environmentepa.gov/highschool/air.htm",How can we reduce our risks of IAQ pollutants? 
1,1,1,"Which of the following is not an indoor environmental asthma trigger?",,Dust mites,N,Lead,Y, Mold,N,Nitrogen dioxide,N,"While exposure to lead can lead to numerous adverse health effects, it does not trigger asthma attacks. ",,"U.S. Environmental Protection Agency, Asthma, Asthma Triggers: Gain Controlwww.epa.gov/asthma/triggers.html","How many of the above indoor air pollutants would you find in your own home? Have you ever checked for any of these?How would you check for these? "
